Statistik Aufbau - 3 Regression in R
…
In können Exceldateien mit dem Paket readxl in R «importiert» werden (schauen Sie mal, ob in Ihrem R-Studio oben ein gelber Streifen auftaucht, wenn Sie folgende Zeile schreiben; in dem Fall klicken Sie oben darauf, dass das Paket, was fehlt, noch installiert werden muss.).

# Lade die Exceldatei "EinfachsteRegression.xlsx" 
# mit dem Paket readxl 
# und daraus dem Befehl read_excel

# DATEN <- readxl::read_excel("data/EinfachsteRegression.xlsx") 
# Besser hier noch speichern, damit die Werte aus der Excel nicht jedes Mal andere sind. In Excel wird ja jedes Mal neu "gewürfelt", wenn die Datei geöffnet wird.
# saveRDS(DATEN, file = "data/EinfachsteRegression.RDS")

DATEN <- readRDS(file = "data/EinfachsteRegression.RDS")

# Zeige mal die ersten 10 Zeilen des Datensatzes
DATEN
## # A tibble: 100 × 4
##      ID     Y   X_2   X_3
##   <dbl> <dbl> <dbl> <dbl>
## 1     1    13     3     5
## 2     2     7     1     5
## 3     3    10     2     4
## 4     4    14    10     7
## 5     5     5     3     5
## 6     6    19    10     9
## # … with 94 more rows
…
