Statistik Aufbau - 4 Gruppenvergleiche (ANCOVA)
…
Observations

24

R2 / R2 adjusted

0.118 / 0.078

Regression mit einer Dummmy als UV

4.4 Interaktionseffekte

Werden wir mal erwachsen und schauen uns ein anderes Beispiel an, das auf eine Medienwirkgungsfrage zurück geht. Gehen wir also jetzt der Frage nach, ob gewalthaltige Videospiele antisozial machen. Dazu hat das britische Ofcom (Office of Communication) 2008 eine Studie herausgegeben [@Ofcom2008]. Für die Studie wurden 442 Jugendliche befragt. Im folgenden Chunkg wird der dazugehörige Datensatz heruntergeladen, umgewandelt und im Datenobjekt «Video_Games» gespeichert. Den analysieren wir im Folgenden. Die Variablen sind «Aggression» als Messung aggressiver Verhaltensweisen, «CaUnTs» als callous unemotional traits (affektiv-soziale defizite) und «Vid_Games» in Stunden Nutzung von Videospielen.

## # A tibble: 442 × 4
##      ID Aggression Vid_Games CaUnTs
##   <dbl>      <dbl>     <dbl>  <dbl>
## 1    69         13        16      0
## 2    55         38        12      0
## 3     7         30        32      0
## 4    96         23        10      1
## 5   130         25        11      1
## 6   124         46        29      1
## # … with 436 more rows
…
